{
	"name": "SettingsCascade",
	"dockerFile": "Dockerfile",

	"mounts": [
		"source=${localWorkspaceFolder},target=/app,type=bind,consistency=",
	],

	"settings": { 
		"terminal.integrated.shell.linux": "/bin/bash"
	},

	"extensions": [
		"ms-python.python"
	]
}
